{
    "data": {
        "First_Harabaz Score": [
            315.08582501778125
        ],
        "First_Means": {
            "0": {
                "petal_length": "4.86",
                "petal_width": "1.65",
                "sepal_length": "6.21",
                "sepal_width": "2.85"
            },
            "1": {
                "petal_length": "1.53",
                "petal_width": "0.27",
                "sepal_length": "5.01",
                "sepal_width": "3.38"
            },
            "2": {
                "petal_length": "6.27",
                "petal_width": "2.27",
                "sepal_length": "7.47",
                "sepal_width": "3.42"
            }
        },
        "Second_Means": {
            "0": {
                "petal_length": "1.46",
                "petal_width": "0.24",
                "sepal_length": "5.01",
                "sepal_width": "3.42"
            },
            "1": {
                "petal_length": "4.49",
                "petal_width": "1.46",
                "sepal_length": "5.89",
                "sepal_width": "2.69"
            },
            "2": {
                "petal_length": "5.56",
                "petal_width": "2.01",
                "sepal_length": "6.85",
                "sepal_width": "3.15"
            }
        },
        "First_Name": "Mean Shift Clustering",
        "First_No. of clusters": 3,
        "First_Scatter_plot": {
            "Cluster 0": [
                {
                    "x": 1.1,
                    "y": 0.86
                },
                {
                    "x": 0.73,
                    "y": 0.6
                },
                {
                    "x": 1.24,
                    "y": 0.61
                },
                {
                    "x": 0.4,
                    "y": -1.76
                },
                {
                    "x": 1.07,
                    "y": -0.21
                },
                {
                    "x": 0.38,
                    "y": -0.59
                },
                {
                    "x": 0.75,
                    "y": 0.78
                },
                {
                    "x": 0.93,
                    "y": 0.03
                },
                {
                    "x": 0.0,
                    "y": -1.03
                },
                {
                    "x": -0.12,
                    "y": -2.66
                },
                {
                    "x": 0.44,
                    "y": -0.06
                },
                {
                    "x": 0.55,
                    "y": -1.77
                },
                {
                    "x": 0.72,
                    "y": -0.19
                },
                {
                    "x": -0.04,
                    "y": -0.43
                },
                {
                    "x": 0.88,
                    "y": 0.51
                },
                {
                    "x": 0.35,
                    "y": -0.19
                },
                {
                    "x": 0.15,
                    "y": -0.79
                },
                {
                    "x": 1.22,
                    "y": -1.63
                },
                {
                    "x": 0.16,
                    "y": -1.3
                },
                {
                    "x": 0.74,
                    "y": 0.4
                },
                {
                    "x": 0.47,
                    "y": -0.42
                },
                {
                    "x": 1.23,
                    "y": -0.94
                },
                {
                    "x": 0.63,
                    "y": -0.42
                },
                {
                    "x": 0.7,
                    "y": -0.06
                },
                {
                    "x": 0.87,
                    "y": 0.25
                },
                {
                    "x": 1.25,
                    "y": -0.08
                },
                {
                    "x": 1.36,
                    "y": 0.33
                },
                {
                    "x": 0.66,
                    "y": -0.22
                },
                {
                    "x": -0.05,
                    "y": -1.06
                },
                {
                    "x": 0.12,
                    "y": -1.56
                },
                {
                    "x": 0.01,
                    "y": -1.57
                },
                {
                    "x": 0.24,
                    "y": -0.78
                },
                {
                    "x": 1.06,
                    "y": -0.64
                },
                {
                    "x": 0.22,
                    "y": -0.28
                },
                {
                    "x": 0.43,
                    "y": 0.86
                },
                {
                    "x": 1.05,
                    "y": 0.52
                },
                {
                    "x": 1.04,
                    "y": -1.39
                },
                {
                    "x": 0.07,
                    "y": -0.21
                },
                {
                    "x": 0.28,
                    "y": -1.33
                },
                {
                    "x": 0.27,
                    "y": -1.12
                },
                {
                    "x": 0.62,
                    "y": 0.03
                },
                {
                    "x": 0.33,
                    "y": -0.99
                },
                {
                    "x": -0.37,
                    "y": -2.02
                },
                {
                    "x": 0.28,
                    "y": -0.85
                },
                {
                    "x": 0.09,
                    "y": -0.17
                },
                {
                    "x": 0.22,
                    "y": -0.38
                },
                {
                    "x": 0.57,
                    "y": -0.15
                },
                {
                    "x": 0.25,
                    "y": -0.6
                },
                {
                    "x": 1.85,
                    "y": 0.87
                },
                {
                    "x": 1.15,
                    "y": -0.7
                },
                {
                    "x": 2.21,
                    "y": 0.55
                },
                {
                    "x": 1.44,
                    "y": -0.05
                },
                {
                    "x": 1.87,
                    "y": 0.29
                },
                {
                    "x": 0.36,
                    "y": -1.56
                },
                {
                    "x": 2.3,
                    "y": 0.41
                },
                {
                    "x": 2.0,
                    "y": -0.72
                },
                {
                    "x": 1.37,
                    "y": 0.69
                },
                {
                    "x": 1.6,
                    "y": -0.43
                },
                {
                    "x": 1.88,
                    "y": 0.41
                },
                {
                    "x": 1.25,
                    "y": -1.17
                },
                {
                    "x": 1.46,
                    "y": -0.44
                },
                {
                    "x": 1.59,
                    "y": 0.68
                },
                {
                    "x": 1.47,
                    "y": 0.25
                },
                {
                    "x": 3.31,
                    "y": -0.0
                },
                {
                    "x": 1.25,
                    "y": -1.72
                },
                {
                    "x": 2.04,
                    "y": 0.91
                },
                {
                    "x": 0.97,
                    "y": -0.57
                },
                {
                    "x": 2.9,
                    "y": 0.4
                },
                {
                    "x": 1.33,
                    "y": -0.49
                },
                {
                    "x": 1.7,
                    "y": 1.01
                },
                {
                    "x": 1.96,
                    "y": 1.0
                },
                {
                    "x": 1.17,
                    "y": -0.32
                },
                {
                    "x": 1.02,
                    "y": 0.07
                },
                {
                    "x": 1.79,
                    "y": -0.19
                },
                {
                    "x": 1.86,
                    "y": 0.56
                },
                {
                    "x": 2.44,
                    "y": 0.25
                },
                {
                    "x": 1.86,
                    "y": -0.18
                },
                {
                    "x": 1.11,
                    "y": -0.3
                },
                {
                    "x": 1.2,
                    "y": -0.82
                },
                {
                    "x": 1.58,
                    "y": 1.07
                },
                {
                    "x": 1.35,
                    "y": 0.42
                },
                {
                    "x": 0.92,
                    "y": 0.02
                },
                {
                    "x": 1.85,
                    "y": 0.67
                },
                {
                    "x": 2.02,
                    "y": 0.61
                },
                {
                    "x": 1.9,
                    "y": 0.69
                },
                {
                    "x": 1.15,
                    "y": -0.7
                },
                {
                    "x": 2.04,
                    "y": 0.86
                },
                {
                    "x": 1.87,
                    "y": 0.38
                },
                {
                    "x": 1.56,
                    "y": -0.91
                },
                {
                    "x": 1.52,
                    "y": 0.27
                },
                {
                    "x": 1.38,
                    "y": 1.02
                },
                {
                    "x": 0.96,
                    "y": -0.02
                }
            ],
            "Cluster 1": [
                {
                    "x": -2.26,
                    "y": 0.51
                },
                {
                    "x": -2.09,
                    "y": -0.66
                },
                {
                    "x": -2.37,
                    "y": -0.32
                },
                {
                    "x": -2.3,
                    "y": -0.58
                },
                {
                    "x": -2.39,
                    "y": 0.67
                },
                {
                    "x": -2.07,
                    "y": 1.52
                },
                {
                    "x": -2.45,
                    "y": 0.07
                },
                {
                    "x": -2.23,
                    "y": 0.25
                },
                {
                    "x": -2.34,
                    "y": -1.1
                },
                {
                    "x": -2.19,
                    "y": -0.45
                },
                {
                    "x": -2.16,
                    "y": 1.07
                },
                {
                    "x": -2.33,
                    "y": 0.16
                },
                {
                    "x": -2.22,
                    "y": -0.71
                },
                {
                    "x": -2.64,
                    "y": -0.94
                },
                {
                    "x": -2.19,
                    "y": 1.89
                },
                {
                    "x": -2.25,
                    "y": 2.72
                },
                {
                    "x": -2.2,
                    "y": 1.51
                },
                {
                    "x": -2.19,
                    "y": 0.51
                },
                {
                    "x": -1.89,
                    "y": 1.43
                },
                {
                    "x": -2.34,
                    "y": 1.16
                },
                {
                    "x": -1.91,
                    "y": 0.43
                },
                {
                    "x": -2.2,
                    "y": 0.95
                },
                {
                    "x": -2.77,
                    "y": 0.49
                },
                {
                    "x": -1.82,
                    "y": 0.11
                },
                {
                    "x": -2.23,
                    "y": 0.16
                },
                {
                    "x": -1.96,
                    "y": -0.61
                },
                {
                    "x": -2.05,
                    "y": 0.27
                },
                {
                    "x": -2.17,
                    "y": 0.55
                },
                {
                    "x": -2.14,
                    "y": 0.34
                },
                {
                    "x": -2.27,
                    "y": -0.31
                },
                {
                    "x": -2.14,
                    "y": -0.48
                },
                {
                    "x": -1.83,
                    "y": 0.45
                },
                {
                    "x": -2.61,
                    "y": 1.83
                },
                {
                    "x": -2.44,
                    "y": 2.19
                },
                {
                    "x": -2.19,
                    "y": -0.45
                },
                {
                    "x": -2.21,
                    "y": -0.18
                },
                {
                    "x": -2.04,
                    "y": 0.68
                },
                {
                    "x": -2.19,
                    "y": -0.45
                },
                {
                    "x": -2.44,
                    "y": -0.88
                },
                {
                    "x": -2.17,
                    "y": 0.29
                },
                {
                    "x": -2.29,
                    "y": 0.47
                },
                {
                    "x": -1.87,
                    "y": -2.33
                },
                {
                    "x": -2.56,
                    "y": -0.45
                },
                {
                    "x": -1.96,
                    "y": 0.5
                },
                {
                    "x": -2.13,
                    "y": 1.17
                },
                {
                    "x": -2.08,
                    "y": -0.69
                },
                {
                    "x": -2.38,
                    "y": 1.15
                },
                {
                    "x": -2.4,
                    "y": -0.36
                },
                {
                    "x": -2.23,
                    "y": 1.03
                },
                {
                    "x": -2.21,
                    "y": 0.03
                },
                {
                    "x": -0.5,
                    "y": -1.85
                },
                {
                    "x": -0.46,
                    "y": -1.54
                }
            ],
            "Cluster 2": [
                {
                    "x": 2.75,
                    "y": 0.79
                },
                {
                    "x": 2.27,
                    "y": 1.92
                },
                {
                    "x": 2.44,
                    "y": 2.56
                },
                {
                    "x": 2.32,
                    "y": 2.63
                },
                {
                    "x": 2.8,
                    "y": 0.84
                },
                {
                    "x": 2.0,
                    "y": 1.05
                }
            ]
        },
        "First_Silhouette Score": [
            0.4826765282249199
        ],
        "First_Standard_Deviation": {
            "0": {
                "petal_length": "0.73",
                "petal_width": "0.40",
                "sepal_length": "0.57",
                "sepal_width": "0.30"
            },
            "1": {
                "petal_length": "0.37",
                "petal_width": "0.19",
                "sepal_length": "0.34",
                "sepal_width": "0.41"
            },
            "2": {
                "petal_length": "0.34",
                "petal_width": "0.19",
                "sepal_length": "0.40",
                "sepal_width": "0.34"
            }
        },
        "Second_Harabaz Score": [
            283.1074234849887
        ],
        "Second_Name": "Agglomerative Clustering",
        "Second_No. of clusters": [
            3
        ],
        "Second_Scatter_plot": {
            "Cluster 0": [
                {
                    "x": -2.26,
                    "y": 0.51
                },
                {
                    "x": -2.09,
                    "y": -0.66
                },
                {
                    "x": -2.37,
                    "y": -0.32
                },
                {
                    "x": -2.3,
                    "y": -0.58
                },
                {
                    "x": -2.39,
                    "y": 0.67
                },
                {
                    "x": -2.07,
                    "y": 1.52
                },
                {
                    "x": -2.45,
                    "y": 0.07
                },
                {
                    "x": -2.23,
                    "y": 0.25
                },
                {
                    "x": -2.34,
                    "y": -1.1
                },
                {
                    "x": -2.19,
                    "y": -0.45
                },
                {
                    "x": -2.16,
                    "y": 1.07
                },
                {
                    "x": -2.33,
                    "y": 0.16
                },
                {
                    "x": -2.22,
                    "y": -0.71
                },
                {
                    "x": -2.64,
                    "y": -0.94
                },
                {
                    "x": -2.19,
                    "y": 1.89
                },
                {
                    "x": -2.25,
                    "y": 2.72
                },
                {
                    "x": -2.2,
                    "y": 1.51
                },
                {
                    "x": -2.19,
                    "y": 0.51
                },
                {
                    "x": -1.89,
                    "y": 1.43
                },
                {
                    "x": -2.34,
                    "y": 1.16
                },
                {
                    "x": -1.91,
                    "y": 0.43
                },
                {
                    "x": -2.2,
                    "y": 0.95
                },
                {
                    "x": -2.77,
                    "y": 0.49
                },
                {
                    "x": -1.82,
                    "y": 0.11
                },
                {
                    "x": -2.23,
                    "y": 0.16
                },
                {
                    "x": -1.96,
                    "y": -0.61
                },
                {
                    "x": -2.05,
                    "y": 0.27
                },
                {
                    "x": -2.17,
                    "y": 0.55
                },
                {
                    "x": -2.14,
                    "y": 0.34
                },
                {
                    "x": -2.27,
                    "y": -0.31
                },
                {
                    "x": -2.14,
                    "y": -0.48
                },
                {
                    "x": -1.83,
                    "y": 0.45
                },
                {
                    "x": -2.61,
                    "y": 1.83
                },
                {
                    "x": -2.44,
                    "y": 2.19
                },
                {
                    "x": -2.19,
                    "y": -0.45
                },
                {
                    "x": -2.21,
                    "y": -0.18
                },
                {
                    "x": -2.04,
                    "y": 0.68
                },
                {
                    "x": -2.19,
                    "y": -0.45
                },
                {
                    "x": -2.44,
                    "y": -0.88
                },
                {
                    "x": -2.17,
                    "y": 0.29
                },
                {
                    "x": -2.29,
                    "y": 0.47
                },
                {
                    "x": -1.87,
                    "y": -2.33
                },
                {
                    "x": -2.56,
                    "y": -0.45
                },
                {
                    "x": -1.96,
                    "y": 0.5
                },
                {
                    "x": -2.13,
                    "y": 1.17
                },
                {
                    "x": -2.08,
                    "y": -0.69
                },
                {
                    "x": -2.38,
                    "y": 1.15
                },
                {
                    "x": -2.4,
                    "y": -0.36
                },
                {
                    "x": -2.23,
                    "y": 1.03
                },
                {
                    "x": -2.21,
                    "y": 0.03
                }
            ],
            "Cluster 1": [
                {
                    "x": 0.4,
                    "y": -1.76
                },
                {
                    "x": 1.07,
                    "y": -0.21
                },
                {
                    "x": 0.38,
                    "y": -0.59
                },
                {
                    "x": -0.5,
                    "y": -1.85
                },
                {
                    "x": 0.93,
                    "y": 0.03
                },
                {
                    "x": 0.0,
                    "y": -1.03
                },
                {
                    "x": -0.12,
                    "y": -2.66
                },
                {
                    "x": 0.44,
                    "y": -0.06
                },
                {
                    "x": 0.55,
                    "y": -1.77
                },
                {
                    "x": 0.72,
                    "y": -0.19
                },
                {
                    "x": -0.04,
                    "y": -0.43
                },
                {
                    "x": 0.35,
                    "y": -0.19
                },
                {
                    "x": 0.15,
                    "y": -0.79
                },
                {
                    "x": 1.22,
                    "y": -1.63
                },
                {
                    "x": 0.16,
                    "y": -1.3
                },
                {
                    "x": 0.47,
                    "y": -0.42
                },
                {
                    "x": 1.23,
                    "y": -0.94
                },
                {
                    "x": 0.63,
                    "y": -0.42
                },
                {
                    "x": 0.7,
                    "y": -0.06
                },
                {
                    "x": 0.87,
                    "y": 0.25
                },
                {
                    "x": 1.25,
                    "y": -0.08
                },
                {
                    "x": 0.66,
                    "y": -0.22
                },
                {
                    "x": -0.05,
                    "y": -1.06
                },
                {
                    "x": 0.12,
                    "y": -1.56
                },
                {
                    "x": 0.01,
                    "y": -1.57
                },
                {
                    "x": 0.24,
                    "y": -0.78
                },
                {
                    "x": 1.06,
                    "y": -0.64
                },
                {
                    "x": 0.22,
                    "y": -0.28
                },
                {
                    "x": 1.04,
                    "y": -1.39
                },
                {
                    "x": 0.07,
                    "y": -0.21
                },
                {
                    "x": 0.28,
                    "y": -1.33
                },
                {
                    "x": 0.27,
                    "y": -1.12
                },
                {
                    "x": 0.62,
                    "y": 0.03
                },
                {
                    "x": 0.33,
                    "y": -0.99
                },
                {
                    "x": -0.37,
                    "y": -2.02
                },
                {
                    "x": 0.28,
                    "y": -0.85
                },
                {
                    "x": 0.09,
                    "y": -0.17
                },
                {
                    "x": 0.22,
                    "y": -0.38
                },
                {
                    "x": 0.57,
                    "y": -0.15
                },
                {
                    "x": -0.46,
                    "y": -1.54
                },
                {
                    "x": 0.25,
                    "y": -0.6
                },
                {
                    "x": 1.15,
                    "y": -0.7
                },
                {
                    "x": 1.44,
                    "y": -0.05
                },
                {
                    "x": 0.36,
                    "y": -1.56
                },
                {
                    "x": 2.0,
                    "y": -0.72
                },
                {
                    "x": 1.6,
                    "y": -0.43
                },
                {
                    "x": 1.25,
                    "y": -1.17
                },
                {
                    "x": 1.46,
                    "y": -0.44
                },
                {
                    "x": 1.25,
                    "y": -1.72
                },
                {
                    "x": 0.97,
                    "y": -0.57
                },
                {
                    "x": 1.33,
                    "y": -0.49
                },
                {
                    "x": 1.17,
                    "y": -0.32
                },
                {
                    "x": 1.02,
                    "y": 0.07
                },
                {
                    "x": 1.79,
                    "y": -0.19
                },
                {
                    "x": 1.86,
                    "y": -0.18
                },
                {
                    "x": 1.11,
                    "y": -0.3
                },
                {
                    "x": 1.2,
                    "y": -0.82
                },
                {
                    "x": 0.92,
                    "y": 0.02
                },
                {
                    "x": 1.15,
                    "y": -0.7
                },
                {
                    "x": 1.56,
                    "y": -0.91
                },
                {
                    "x": 0.96,
                    "y": -0.02
                }
            ],
            "Cluster 2": [
                {
                    "x": 1.1,
                    "y": 0.86
                },
                {
                    "x": 0.73,
                    "y": 0.6
                },
                {
                    "x": 1.24,
                    "y": 0.61
                },
                {
                    "x": 0.75,
                    "y": 0.78
                },
                {
                    "x": 0.88,
                    "y": 0.51
                },
                {
                    "x": 0.74,
                    "y": 0.4
                },
                {
                    "x": 1.36,
                    "y": 0.33
                },
                {
                    "x": 0.43,
                    "y": 0.86
                },
                {
                    "x": 1.05,
                    "y": 0.52
                },
                {
                    "x": 1.85,
                    "y": 0.87
                },
                {
                    "x": 2.21,
                    "y": 0.55
                },
                {
                    "x": 1.87,
                    "y": 0.29
                },
                {
                    "x": 2.75,
                    "y": 0.79
                },
                {
                    "x": 2.3,
                    "y": 0.41
                },
                {
                    "x": 2.27,
                    "y": 1.92
                },
                {
                    "x": 1.37,
                    "y": 0.69
                },
                {
                    "x": 1.88,
                    "y": 0.41
                },
                {
                    "x": 1.59,
                    "y": 0.68
                },
                {
                    "x": 1.47,
                    "y": 0.25
                },
                {
                    "x": 2.44,
                    "y": 2.56
                },
                {
                    "x": 3.31,
                    "y": -0.0
                },
                {
                    "x": 2.04,
                    "y": 0.91
                },
                {
                    "x": 2.9,
                    "y": 0.4
                },
                {
                    "x": 1.7,
                    "y": 1.01
                },
                {
                    "x": 1.96,
                    "y": 1.0
                },
                {
                    "x": 1.86,
                    "y": 0.56
                },
                {
                    "x": 2.44,
                    "y": 0.25
                },
                {
                    "x": 2.32,
                    "y": 2.63
                },
                {
                    "x": 2.8,
                    "y": 0.84
                },
                {
                    "x": 1.58,
                    "y": 1.07
                },
                {
                    "x": 1.35,
                    "y": 0.42
                },
                {
                    "x": 1.85,
                    "y": 0.67
                },
                {
                    "x": 2.02,
                    "y": 0.61
                },
                {
                    "x": 1.9,
                    "y": 0.69
                },
                {
                    "x": 2.04,
                    "y": 0.86
                },
                {
                    "x": 2.0,
                    "y": 1.05
                },
                {
                    "x": 1.87,
                    "y": 0.38
                },
                {
                    "x": 1.52,
                    "y": 0.27
                },
                {
                    "x": 1.38,
                    "y": 1.02
                }
            ]
        },
        "Second_Silhouette Score": [
            0.5102944441771632
        ],
        "Second_Standard_Deviation": {
            "0": {
                "petal_length": "0.17",
                "petal_width": "0.11",
                "sepal_length": "0.35",
                "sepal_width": "0.38"
            },
            "1": {
                "petal_length": "0.62",
                "petal_width": "0.33",
                "sepal_length": "0.44",
                "sepal_width": "0.25"
            },
            "2": {
                "petal_length": "0.65",
                "petal_width": "0.33",
                "sepal_length": "0.50",
                "sepal_width": "0.24"
            }
        },
        "First_Density_Plot": {
            "sepal_length": {
                "0": [
                    1.3,
                    1.5,
                    1.3,
                    1.0,
                    1.3,
                    1.4,
                    1.0,
                    1.5,
                    1.0,
                    1.4,
                    1.3,
                    1.5,
                    1.0,
                    1.5,
                    1.1,
                    1.3,
                    1.5,
                    1.2,
                    1.3,
                    1.5,
                    1.0,
                    1.1,
                    1.0,
                    1.2,
                    1.6,
                    1.5,
                    1.3,
                    1.3,
                    1.3,
                    1.2,
                    1.4,
                    1.2,
                    1.0,
                    1.3,
                    1.2,
                    1.3,
                    1.3,
                    1.1,
                    1.3,
                    1.9,
                    1.7,
                    2.0,
                    2.4,
                    1.5,
                    2.0,
                    1.8,
                    1.8,
                    1.5,
                    1.4,
                    1.8,
                    1.9,
                    1.9,
                    1.8
                ],
                "1": [
                    0.2,
                    0.2,
                    0.2,
                    0.2,
                    0.2,
                    0.4,
                    0.3,
                    0.2,
                    0.2,
                    0.1,
                    0.2,
                    0.2,
                    0.1,
                    0.1,
                    0.2,
                    0.4,
                    0.4,
                    0.3,
                    0.3,
                    0.3,
                    0.2,
                    0.4,
                    0.2,
                    0.5,
                    0.2,
                    0.2,
                    0.4,
                    0.2,
                    0.2,
                    0.2,
                    0.2,
                    0.4,
                    0.1,
                    0.2,
                    0.1,
                    0.2,
                    0.2,
                    0.1,
                    0.2,
                    0.2,
                    0.3,
                    0.3,
                    0.2,
                    0.6,
                    0.4,
                    0.3,
                    0.2,
                    0.2,
                    0.2,
                    0.2
                ],
                "2": [
                    1.4,
                    1.5,
                    1.5,
                    1.6,
                    1.4,
                    1.8,
                    1.4,
                    1.4,
                    1.7,
                    1.6,
                    1.5,
                    2.5,
                    2.1,
                    1.8,
                    2.2,
                    2.1,
                    1.8,
                    1.8,
                    2.5,
                    2.0,
                    1.9,
                    2.1,
                    2.3,
                    1.8,
                    2.2,
                    2.3,
                    2.3,
                    2.0,
                    2.1,
                    1.8,
                    1.8,
                    2.1,
                    1.6,
                    1.9,
                    2.0,
                    2.2,
                    2.3,
                    2.4,
                    1.8,
                    2.1,
                    2.4,
                    2.3,
                    2.3,
                    2.5,
                    2.3,
                    2.0,
                    2.3
                ]
            },
            "sepal_width": {
                "0": [
                    1.3,
                    1.5,
                    1.3,
                    1.0,
                    1.3,
                    1.4,
                    1.0,
                    1.5,
                    1.0,
                    1.4,
                    1.3,
                    1.5,
                    1.0,
                    1.5,
                    1.1,
                    1.3,
                    1.5,
                    1.2,
                    1.3,
                    1.5,
                    1.0,
                    1.1,
                    1.0,
                    1.2,
                    1.6,
                    1.5,
                    1.3,
                    1.3,
                    1.3,
                    1.2,
                    1.4,
                    1.2,
                    1.0,
                    1.3,
                    1.2,
                    1.3,
                    1.3,
                    1.1,
                    1.3,
                    1.9,
                    1.7,
                    2.0,
                    2.4,
                    1.5,
                    2.0,
                    1.8,
                    1.8,
                    1.5,
                    1.4,
                    1.8,
                    1.9,
                    1.9,
                    1.8
                ],
                "1": [
                    0.2,
                    0.2,
                    0.2,
                    0.2,
                    0.2,
                    0.4,
                    0.3,
                    0.2,
                    0.2,
                    0.1,
                    0.2,
                    0.2,
                    0.1,
                    0.1,
                    0.2,
                    0.4,
                    0.4,
                    0.3,
                    0.3,
                    0.3,
                    0.2,
                    0.4,
                    0.2,
                    0.5,
                    0.2,
                    0.2,
                    0.4,
                    0.2,
                    0.2,
                    0.2,
                    0.2,
                    0.4,
                    0.1,
                    0.2,
                    0.1,
                    0.2,
                    0.2,
                    0.1,
                    0.2,
                    0.2,
                    0.3,
                    0.3,
                    0.2,
                    0.6,
                    0.4,
                    0.3,
                    0.2,
                    0.2,
                    0.2,
                    0.2
                ],
                "2": [
                    1.4,
                    1.5,
                    1.5,
                    1.6,
                    1.4,
                    1.8,
                    1.4,
                    1.4,
                    1.7,
                    1.6,
                    1.5,
                    2.5,
                    2.1,
                    1.8,
                    2.2,
                    2.1,
                    1.8,
                    1.8,
                    2.5,
                    2.0,
                    1.9,
                    2.1,
                    2.3,
                    1.8,
                    2.2,
                    2.3,
                    2.3,
                    2.0,
                    2.1,
                    1.8,
                    1.8,
                    2.1,
                    1.6,
                    1.9,
                    2.0,
                    2.2,
                    2.3,
                    2.4,
                    1.8,
                    2.1,
                    2.4,
                    2.3,
                    2.3,
                    2.5,
                    2.3,
                    2.0,
                    2.3
                ]
            },
            "petal_length": {
                "0": [
                    1.3,
                    1.5,
                    1.3,
                    1.0,
                    1.3,
                    1.4,
                    1.0,
                    1.5,
                    1.0,
                    1.4,
                    1.3,
                    1.5,
                    1.0,
                    1.5,
                    1.1,
                    1.3,
                    1.5,
                    1.2,
                    1.3,
                    1.5,
                    1.0,
                    1.1,
                    1.0,
                    1.2,
                    1.6,
                    1.5,
                    1.3,
                    1.3,
                    1.3,
                    1.2,
                    1.4,
                    1.2,
                    1.0,
                    1.3,
                    1.2,
                    1.3,
                    1.3,
                    1.1,
                    1.3,
                    1.9,
                    1.7,
                    2.0,
                    2.4,
                    1.5,
                    2.0,
                    1.8,
                    1.8,
                    1.5,
                    1.4,
                    1.8,
                    1.9,
                    1.9,
                    1.8
                ],
                "1": [
                    0.2,
                    0.2,
                    0.2,
                    0.2,
                    0.2,
                    0.4,
                    0.3,
                    0.2,
                    0.2,
                    0.1,
                    0.2,
                    0.2,
                    0.1,
                    0.1,
                    0.2,
                    0.4,
                    0.4,
                    0.3,
                    0.3,
                    0.3,
                    0.2,
                    0.4,
                    0.2,
                    0.5,
                    0.2,
                    0.2,
                    0.4,
                    0.2,
                    0.2,
                    0.2,
                    0.2,
                    0.4,
                    0.1,
                    0.2,
                    0.1,
                    0.2,
                    0.2,
                    0.1,
                    0.2,
                    0.2,
                    0.3,
                    0.3,
                    0.2,
                    0.6,
                    0.4,
                    0.3,
                    0.2,
                    0.2,
                    0.2,
                    0.2
                ],
                "2": [
                    1.4,
                    1.5,
                    1.5,
                    1.6,
                    1.4,
                    1.8,
                    1.4,
                    1.4,
                    1.7,
                    1.6,
                    1.5,
                    2.5,
                    2.1,
                    1.8,
                    2.2,
                    2.1,
                    1.8,
                    1.8,
                    2.5,
                    2.0,
                    1.9,
                    2.1,
                    2.3,
                    1.8,
                    2.2,
                    2.3,
                    2.3,
                    2.0,
                    2.1,
                    1.8,
                    1.8,
                    2.1,
                    1.6,
                    1.9,
                    2.0,
                    2.2,
                    2.3,
                    2.4,
                    1.8,
                    2.1,
                    2.4,
                    2.3,
                    2.3,
                    2.5,
                    2.3,
                    2.0,
                    2.3
                ]
            },
            "petal_width": {
                "0": [
                    1.3,
                    1.5,
                    1.3,
                    1.0,
                    1.3,
                    1.4,
                    1.0,
                    1.5,
                    1.0,
                    1.4,
                    1.3,
                    1.5,
                    1.0,
                    1.5,
                    1.1,
                    1.3,
                    1.5,
                    1.2,
                    1.3,
                    1.5,
                    1.0,
                    1.1,
                    1.0,
                    1.2,
                    1.6,
                    1.5,
                    1.3,
                    1.3,
                    1.3,
                    1.2,
                    1.4,
                    1.2,
                    1.0,
                    1.3,
                    1.2,
                    1.3,
                    1.3,
                    1.1,
                    1.3,
                    1.9,
                    1.7,
                    2.0,
                    2.4,
                    1.5,
                    2.0,
                    1.8,
                    1.8,
                    1.5,
                    1.4,
                    1.8,
                    1.9,
                    1.9,
                    1.8
                ],
                "1": [
                    0.2,
                    0.2,
                    0.2,
                    0.2,
                    0.2,
                    0.4,
                    0.3,
                    0.2,
                    0.2,
                    0.1,
                    0.2,
                    0.2,
                    0.1,
                    0.1,
                    0.2,
                    0.4,
                    0.4,
                    0.3,
                    0.3,
                    0.3,
                    0.2,
                    0.4,
                    0.2,
                    0.5,
                    0.2,
                    0.2,
                    0.4,
                    0.2,
                    0.2,
                    0.2,
                    0.2,
                    0.4,
                    0.1,
                    0.2,
                    0.1,
                    0.2,
                    0.2,
                    0.1,
                    0.2,
                    0.2,
                    0.3,
                    0.3,
                    0.2,
                    0.6,
                    0.4,
                    0.3,
                    0.2,
                    0.2,
                    0.2,
                    0.2
                ],
                "2": [
                    1.4,
                    1.5,
                    1.5,
                    1.6,
                    1.4,
                    1.8,
                    1.4,
                    1.4,
                    1.7,
                    1.6,
                    1.5,
                    2.5,
                    2.1,
                    1.8,
                    2.2,
                    2.1,
                    1.8,
                    1.8,
                    2.5,
                    2.0,
                    1.9,
                    2.1,
                    2.3,
                    1.8,
                    2.2,
                    2.3,
                    2.3,
                    2.0,
                    2.1,
                    1.8,
                    1.8,
                    2.1,
                    1.6,
                    1.9,
                    2.0,
                    2.2,
                    2.3,
                    2.4,
                    1.8,
                    2.1,
                    2.4,
                    2.3,
                    2.3,
                    2.5,
                    2.3,
                    2.0,
                    2.3
                ]
            }
        },
        "Second_Density_Plot": {
            "petal_length": {
                "0": [
                    0.2,
                    0.2,
                    0.2,
                    0.2,
                    0.2,
                    0.4,
                    0.3,
                    0.2,
                    0.2,
                    0.1,
                    0.2,
                    0.2,
                    0.1,
                    0.1,
                    0.2,
                    0.4,
                    0.4,
                    0.3,
                    0.3,
                    0.3,
                    0.2,
                    0.4,
                    0.2,
                    0.5,
                    0.2,
                    0.2,
                    0.4,
                    0.2,
                    0.2,
                    0.2,
                    0.2,
                    0.4,
                    0.1,
                    0.2,
                    0.1,
                    0.2,
                    0.2,
                    0.1,
                    0.2,
                    0.2,
                    0.3,
                    0.3,
                    0.2,
                    0.6,
                    0.4,
                    0.3,
                    0.2,
                    0.2,
                    0.2,
                    0.2
                ],
                "1": [
                    1.3,
                    1.5,
                    1.3,
                    1.0,
                    1.3,
                    1.4,
                    1.0,
                    1.5,
                    1.0,
                    1.4,
                    1.3,
                    1.5,
                    1.0,
                    1.5,
                    1.1,
                    1.3,
                    1.5,
                    1.2,
                    1.3,
                    1.4,
                    1.4,
                    1.5,
                    1.0,
                    1.1,
                    1.0,
                    1.2,
                    1.6,
                    1.5,
                    1.3,
                    1.3,
                    1.3,
                    1.2,
                    1.4,
                    1.2,
                    1.0,
                    1.3,
                    1.2,
                    1.3,
                    1.3,
                    1.1,
                    1.3,
                    1.9,
                    1.8,
                    1.7,
                    1.8,
                    1.9,
                    2.0,
                    2.4,
                    1.5,
                    2.0,
                    1.8,
                    1.8,
                    1.8,
                    2.1,
                    2.2,
                    1.5,
                    1.4,
                    1.8,
                    1.9,
                    1.9,
                    1.8
                ],
                "2": [
                    1.4,
                    1.5,
                    1.5,
                    1.6,
                    1.4,
                    1.8,
                    1.7,
                    1.6,
                    1.5,
                    2.5,
                    2.1,
                    2.2,
                    2.1,
                    1.8,
                    2.5,
                    2.0,
                    2.1,
                    2.3,
                    1.8,
                    2.2,
                    2.3,
                    2.3,
                    2.0,
                    2.1,
                    1.8,
                    1.6,
                    1.9,
                    2.0,
                    2.3,
                    2.4,
                    1.8,
                    2.1,
                    2.4,
                    2.3,
                    2.3,
                    2.5,
                    2.3,
                    2.0,
                    2.3
                ]
            },
            "petal_width": {
                "0": [
                    0.2,
                    0.2,
                    0.2,
                    0.2,
                    0.2,
                    0.4,
                    0.3,
                    0.2,
                    0.2,
                    0.1,
                    0.2,
                    0.2,
                    0.1,
                    0.1,
                    0.2,
                    0.4,
                    0.4,
                    0.3,
                    0.3,
                    0.3,
                    0.2,
                    0.4,
                    0.2,
                    0.5,
                    0.2,
                    0.2,
                    0.4,
                    0.2,
                    0.2,
                    0.2,
                    0.2,
                    0.4,
                    0.1,
                    0.2,
                    0.1,
                    0.2,
                    0.2,
                    0.1,
                    0.2,
                    0.2,
                    0.3,
                    0.3,
                    0.2,
                    0.6,
                    0.4,
                    0.3,
                    0.2,
                    0.2,
                    0.2,
                    0.2
                ],
                "1": [
                    1.3,
                    1.5,
                    1.3,
                    1.0,
                    1.3,
                    1.4,
                    1.0,
                    1.5,
                    1.0,
                    1.4,
                    1.3,
                    1.5,
                    1.0,
                    1.5,
                    1.1,
                    1.3,
                    1.5,
                    1.2,
                    1.3,
                    1.4,
                    1.4,
                    1.5,
                    1.0,
                    1.1,
                    1.0,
                    1.2,
                    1.6,
                    1.5,
                    1.3,
                    1.3,
                    1.3,
                    1.2,
                    1.4,
                    1.2,
                    1.0,
                    1.3,
                    1.2,
                    1.3,
                    1.3,
                    1.1,
                    1.3,
                    1.9,
                    1.8,
                    1.7,
                    1.8,
                    1.9,
                    2.0,
                    2.4,
                    1.5,
                    2.0,
                    1.8,
                    1.8,
                    1.8,
                    2.1,
                    2.2,
                    1.5,
                    1.4,
                    1.8,
                    1.9,
                    1.9,
                    1.8
                ],
                "2": [
                    1.4,
                    1.5,
                    1.5,
                    1.6,
                    1.4,
                    1.8,
                    1.7,
                    1.6,
                    1.5,
                    2.5,
                    2.1,
                    2.2,
                    2.1,
                    1.8,
                    2.5,
                    2.0,
                    2.1,
                    2.3,
                    1.8,
                    2.2,
                    2.3,
                    2.3,
                    2.0,
                    2.1,
                    1.8,
                    1.6,
                    1.9,
                    2.0,
                    2.3,
                    2.4,
                    1.8,
                    2.1,
                    2.4,
                    2.3,
                    2.3,
                    2.5,
                    2.3,
                    2.0,
                    2.3
                ]
            },
            "sepal_length": {
                "0": [
                    0.2,
                    0.2,
                    0.2,
                    0.2,
                    0.2,
                    0.4,
                    0.3,
                    0.2,
                    0.2,
                    0.1,
                    0.2,
                    0.2,
                    0.1,
                    0.1,
                    0.2,
                    0.4,
                    0.4,
                    0.3,
                    0.3,
                    0.3,
                    0.2,
                    0.4,
                    0.2,
                    0.5,
                    0.2,
                    0.2,
                    0.4,
                    0.2,
                    0.2,
                    0.2,
                    0.2,
                    0.4,
                    0.1,
                    0.2,
                    0.1,
                    0.2,
                    0.2,
                    0.1,
                    0.2,
                    0.2,
                    0.3,
                    0.3,
                    0.2,
                    0.6,
                    0.4,
                    0.3,
                    0.2,
                    0.2,
                    0.2,
                    0.2
                ],
                "1": [
                    1.3,
                    1.5,
                    1.3,
                    1.0,
                    1.3,
                    1.4,
                    1.0,
                    1.5,
                    1.0,
                    1.4,
                    1.3,
                    1.5,
                    1.0,
                    1.5,
                    1.1,
                    1.3,
                    1.5,
                    1.2,
                    1.3,
                    1.4,
                    1.4,
                    1.5,
                    1.0,
                    1.1,
                    1.0,
                    1.2,
                    1.6,
                    1.5,
                    1.3,
                    1.3,
                    1.3,
                    1.2,
                    1.4,
                    1.2,
                    1.0,
                    1.3,
                    1.2,
                    1.3,
                    1.3,
                    1.1,
                    1.3,
                    1.9,
                    1.8,
                    1.7,
                    1.8,
                    1.9,
                    2.0,
                    2.4,
                    1.5,
                    2.0,
                    1.8,
                    1.8,
                    1.8,
                    2.1,
                    2.2,
                    1.5,
                    1.4,
                    1.8,
                    1.9,
                    1.9,
                    1.8
                ],
                "2": [
                    1.4,
                    1.5,
                    1.5,
                    1.6,
                    1.4,
                    1.8,
                    1.7,
                    1.6,
                    1.5,
                    2.5,
                    2.1,
                    2.2,
                    2.1,
                    1.8,
                    2.5,
                    2.0,
                    2.1,
                    2.3,
                    1.8,
                    2.2,
                    2.3,
                    2.3,
                    2.0,
                    2.1,
                    1.8,
                    1.6,
                    1.9,
                    2.0,
                    2.3,
                    2.4,
                    1.8,
                    2.1,
                    2.4,
                    2.3,
                    2.3,
                    2.5,
                    2.3,
                    2.0,
                    2.3
                ]
            },
            "sepal_width": {
                "0": [
                    0.2,
                    0.2,
                    0.2,
                    0.2,
                    0.2,
                    0.4,
                    0.3,
                    0.2,
                    0.2,
                    0.1,
                    0.2,
                    0.2,
                    0.1,
                    0.1,
                    0.2,
                    0.4,
                    0.4,
                    0.3,
                    0.3,
                    0.3,
                    0.2,
                    0.4,
                    0.2,
                    0.5,
                    0.2,
                    0.2,
                    0.4,
                    0.2,
                    0.2,
                    0.2,
                    0.2,
                    0.4,
                    0.1,
                    0.2,
                    0.1,
                    0.2,
                    0.2,
                    0.1,
                    0.2,
                    0.2,
                    0.3,
                    0.3,
                    0.2,
                    0.6,
                    0.4,
                    0.3,
                    0.2,
                    0.2,
                    0.2,
                    0.2
                ],
                "1": [
                    1.3,
                    1.5,
                    1.3,
                    1.0,
                    1.3,
                    1.4,
                    1.0,
                    1.5,
                    1.0,
                    1.4,
                    1.3,
                    1.5,
                    1.0,
                    1.5,
                    1.1,
                    1.3,
                    1.5,
                    1.2,
                    1.3,
                    1.4,
                    1.4,
                    1.5,
                    1.0,
                    1.1,
                    1.0,
                    1.2,
                    1.6,
                    1.5,
                    1.3,
                    1.3,
                    1.3,
                    1.2,
                    1.4,
                    1.2,
                    1.0,
                    1.3,
                    1.2,
                    1.3,
                    1.3,
                    1.1,
                    1.3,
                    1.9,
                    1.8,
                    1.7,
                    1.8,
                    1.9,
                    2.0,
                    2.4,
                    1.5,
                    2.0,
                    1.8,
                    1.8,
                    1.8,
                    2.1,
                    2.2,
                    1.5,
                    1.4,
                    1.8,
                    1.9,
                    1.9,
                    1.8
                ],
                "2": [
                    1.4,
                    1.5,
                    1.5,
                    1.6,
                    1.4,
                    1.8,
                    1.7,
                    1.6,
                    1.5,
                    2.5,
                    2.1,
                    2.2,
                    2.1,
                    1.8,
                    2.5,
                    2.0,
                    2.1,
                    2.3,
                    1.8,
                    2.2,
                    2.3,
                    2.3,
                    2.0,
                    2.1,
                    1.8,
                    1.6,
                    1.9,
                    2.0,
                    2.3,
                    2.4,
                    1.8,
                    2.1,
                    2.4,
                    2.3,
                    2.3,
                    2.5,
                    2.3,
                    2.0,
                    2.3
                ]
            }
        }
    }
}